<svg viewBox="0 0 77 77" xmlns="http://www.w3.org/2000/svg">
  <title>
    add
  </title>
  <g transform="translate(2 2)" stroke="#000" stroke-width="3" fill="none" fill-rule="evenodd">
    <circle cx="36.5" cy="36.5" r="36.5"/>
    <path d="M21.5 36.5h31M36.5 21.5v30" stroke-linecap="square"/>
  </g>
</svg>
