<svg viewBox="0 0 57 57" xmlns="http://www.w3.org/2000/svg">
  <title>
    first-quarter
  </title>
  <g fill="none" fill-rule="evenodd">
    <circle fill="#6C8492" transform="rotate(180 28.5 28.5)" cx="28.5" cy="28.5" r="28.5"/>
    <path d="M28 3c14.083 0 25.5 11.417 25.5 25.5S42.083 54 28 54V3z" fill="#E4E4E4"/>
  </g>
</svg>
