<svg viewBox="0 0 177 153" xmlns="http://www.w3.org/2000/svg">
  <title>
    rain-blue
  </title>
  <defs>
    <filter x="-50%" y="-50%" width="200%" height="200%" filterUnits="objectBoundingBox" id="a">
      <feOffset dy="2" in="SourceAlpha" result="shadowOffsetOuter1"/>
      <feGaussianBlur stdDeviation="2" in="shadowOffsetOuter1" result="shadowBlurOuter1"/>
      <feColorMatrix values="0 0 0 0 0 0 0 0 0 0 0 0 0 0 0 0 0 0 0.5 0" in="shadowBlurOuter1" result="shadowMatrixOuter1"/>
      <feMerge>
        <feMergeNode in="shadowMatrixOuter1"/>
        <feMergeNode in="SourceGraphic"/>
      </feMerge>
    </filter>
    <linearGradient x1="140.163%" y1="-7.254%" x2="-28.347%" y2="115.845%" id="b">
      <stop stop-color="#A6EAFD" offset="0%"/>
      <stop stop-color="#D4EEF3" offset="100%"/>
    </linearGradient>
  </defs>
  <g filter="url(#a)" transform="translate(16 1)" fill="none" fill-rule="evenodd">
    <path d="M53.655 18.763C50.197 16.39 46.01 15 41.5 15 29.626 15 20 24.626 20 36.5c0 2.012.276 3.96.793 5.806C8.75 46.02 0 57.238 0 70.5c0 15.45 11.878 28.127 27 29.396V100h88c17.12 0 31-13.88 31-31 0-13.252-8.315-24.562-20.013-28.997.01-.333.013-.668.013-1.003 0-21.54-17.46-39-39-39-14.13 0-26.503 7.514-33.345 18.763z" fill="#2CA3E6"/>
    <path d="M103 113l-11 18" stroke="url(#b)" stroke-width="10" stroke-linecap="round"/>
    <circle fill="#FFF" cx="83.5" cy="145.5" r="5.5"/>
    <path d="M75 113l-11 18" stroke="url(#b)" stroke-width="10" stroke-linecap="round"/>
    <circle fill="#FFF" cx="54.5" cy="145.5" r="5.5"/>
    <path d="M46 113l-11 18" stroke="url(#b)" stroke-width="10" stroke-linecap="round"/>
    <circle fill="#FFF" cx="25.5" cy="145.5" r="5.5"/>
  </g>
</svg>
