<svg viewBox="0 0 57 57" xmlns="http://www.w3.org/2000/svg">
  <title>
    wanning-crescent
  </title>
  <g fill="none" fill-rule="evenodd">
    <circle fill="#6C8492" cx="28.5" cy="28.5" r="28.5"/>
    <path d="M33.49 53.512c-1.614.32-3.283.488-4.99.488C14.417 54 3 42.583 3 28.5S14.417 3 28.5 3c1.707 0 3.376.168 4.99.488C24.087 5.808 17 16.124 17 28.5c0 12.376 7.088 22.693 16.49 25.012z" fill="#E4E4E4"/>
  </g>
</svg>
