<svg viewBox="0 0 36 57" xmlns="http://www.w3.org/2000/svg">
  <title>
    wind
  </title>
  <g fill="#FFF" fill-rule="evenodd">
    <circle cx="18" cy="39" r="7"/>
    <path d="M18 56c9.39 0 17-7.61 17-17s-7.61-17-17-17S1 29.61 1 39s7.61 17 17 17zm0-5c6.627 0 12-5.373 12-12s-5.373-12-12-12S6 32.373 6 39s5.373 12 12 12z"/>
    <path d="M21 17h8L18 0 7 17h8v7h6"/>
  </g>
</svg>
